<?xml version="1.0" encoding="UTF-8" standalone="no"?>
<!-- Created with Inkscape (http://www.inkscape.org/) -->

<svg:svg
   xmlns:dc="http://purl.org/dc/elements/1.1/"
   xmlns:cc="http://creativecommons.org/ns#"
   xmlns:rdf="http://www.w3.org/1999/02/22-rdf-syntax-ns#"
   xmlns:svg="http://www.w3.org/2000/svg"
   xmlns:sodipodi="http://sodipodi.sourceforge.net/DTD/sodipodi-0.dtd"
   xmlns:inkscape="http://www.inkscape.org/namespaces/inkscape"
   id="svg2"
   version="1.1"
   inkscape:version="0.48.2 r9819"
   width="1376"
   height="1492"
   sodipodi:docname="plan9bunnywhite.jpg">
  <svg:metadata
     id="metadata8">
    <rdf:RDF>
      <cc:Work
         rdf:about="">
        <dc:format>image/svg+xml</dc:format>
        <dc:type
           rdf:resource="http://purl.org/dc/dcmitype/StillImage" />
        <dc:title></dc:title>
      </cc:Work>
    </rdf:RDF>
  </svg:metadata>
  <svg:defs
     id="defs6" />
  <sodipodi:namedview
     pagecolor="#ffffff"
     bordercolor="#666666"
     borderopacity="1"
     objecttolerance="10"
     gridtolerance="10"
     guidetolerance="10"
     inkscape:pageopacity="0"
     inkscape:pageshadow="2"
     inkscape:window-width="1204"
     inkscape:window-height="657"
     id="namedview4"
     showgrid="false"
     inkscape:zoom="0.22141393"
     inkscape:cx="884.55657"
     inkscape:cy="702.09226"
     inkscape:window-x="-1"
     inkscape:window-y="0"
     inkscape:window-maximized="1"
     inkscape:current-layer="g6052" />
  <svg:g
     id="g4145"
     transform="translate(328.64039,501.14649)">
    <svg:g
       id="g6052"
       transform="translate(27.098566,4.5164276)">
      <svg:path
         inkscape:connector-curvature="0"
         id="path6047"
         d="m 117.70661,-366.91651 c 11.9517,-0.0133 28.4872,7.28192 43.2187,19.03125 9.5679,7.63106 27.5,24.53812 27.5,25.9375 0,0.45997 2.7049,3.02212 6,5.6875 3.2951,2.66539 7.4135,7.03133 9.1563,9.71875 1.7427,2.68742 6.8003,8.59537 11.25,13.125 12.327,12.54859 15.0536,15.56623 20.2812,22.40625 2.6517,3.46963 7.6256,9.95582 11.0625,14.4375 3.4369,4.48167 8.8369,11.84518 12,16.34375 8.3632,11.89412 14.8277,20.3338 22.75,29.6875 3.85,4.54562 8.8,10.8372 11,14 2.2,3.1628 7.53,10.56038 11.8438,16.4375 15.78,21.49895 17.6581,22.51216 41.6562,22.28125 8.525,-0.082 18.0532,-0.60433 21.1875,-1.15625 4.5058,-0.79345 9.1108,-0.57539 22,1.09375 8.9657,1.16106 21.2625,2.76405 27.3125,3.53125 6.05,0.76719 13.025,1.8094 15.5,2.34375 2.475,0.53434 6.7199,1.26905 9.4375,1.625 2.7176,0.35595 6.9926,1.4501 9.5,2.4375 2.5074,0.98739 10.7923,3.44938 18.4063,5.46875 7.6139,2.01937 16.1639,4.75793 19,6.0625 23.687,10.89613 38.4224,17.97074 39.75,19.125 0.8683,0.75498 1.9933,1.39902 2.5,1.4375 0.5066,0.0385 3.6818,1.95098 7.0625,4.25 5.6613,3.84998 10.7633,7.46278 42.6875,30.093751 12.1377,8.60438 34.1929,27.97116 42.1562,37.03125 2.75,3.12874 7.925,8.16426 11.5,11.1875 5.7223,4.83909 11.0253,11.23325 19.4375,23.3749996 1.3337,1.925 6.4685,8.675 11.4063,15 13.67507,17.5170104 22.71307,33.0890304 28.43737,49.0000004 9.1282,25.37195 11.7922,35.53118 17.3126,66.499999 1.3726,7.7 3.1648,16.25 4,19 0.8351,2.75 1.7375,8.375 2,12.5 0.6276,9.8602 0.5247,61.62777 -0.125,64.375 -0.2781,1.17547 -0.9056,6.625 -1.4063,12.125 -0.5007,5.5 -2.0968,18.77504 -3.5625,29.50004 -1.4658,10.725 -3.0386,23.325 -3.4688,28 -0.788,8.5651 -6.3514,42.5027 -8.0312,49 -0.4977,1.925 -1.0844,5.3 -1.3125,7.5 -0.2282,2.2 -0.6614,4.675 -0.9687,5.5 -0.6776,1.8186 -1.967,12.6358 -2.3126,19.5 -0.1385,2.75 -0.7472,8.825 -1.375,13.5 -0.6277,4.675 -1.3651,10.75 -1.625,13.5 -1.1861,12.552 -2.5706,27.4377 -2.9687,32 -0.24,2.75 -0.9006,7.7431 -1.5,11.0937 -0.5994,3.3506 -0.8405,10.1006 -0.5312,15 0.3092,4.8994 0.8295,21.9563 1.1875,37.9063 0.7326,32.64919 -0.024,43.23669 -4.625,64.49999 -1.6067,7.4249 -3.6454,17.1 -4.5625,21.5 -1.7831,8.5544 -7.8209,27.5356 -12.40627,39 -1.5399,3.85 -3.8556,9.7 -5.125,13 -1.2694,3.3 -4.9123,10.6013 -8.0937,16.2188 -3.1815,5.6174 -5.7813,10.5961 -5.7813,11.0624 0,0.4665 -0.8113,1.7066 -1.8125,2.7813 -1.0012,1.0746 -3.1125,4.1959 -4.6875,6.9375 -1.5749,2.7416 -4.1308,6.6422 -5.6875,8.6562 -6.3497,8.2151 -7.2185,14.3106 -3.2187,22.8438 1.4179,3.025 4.421,10.9 6.6562,17.5 3.6956,10.912 4.0644,12.952 4.125,22.5 0.081,12.7447 -1.0614,15.1133 -12.2187,25.3125 -14.6622,13.403 -26.0494,19.1415 -40.2188,20.25 -4.7937,0.375 -9.0991,0.966 -9.5937,1.3125 -0.4947,0.3465 -2.4691,3.7508 -4.375,7.5625 -4.1252,8.2497 -9.3992,14.1504 -13.5,15.125 -2.5433,0.6045 -8.6303,3.4271 -19.4688,9.0313 -2.7954,1.4454 -20.4292,3.4909 -28.3437,3.2812 -2.8293,-0.075 -8.7982,-0.5056 -13.25,-0.9375 -9.3802,-0.9099 -13.412,-2.4039 -21.6563,-8.0313 -8.977,-6.1277 -12.1621,-6.9791 -19.875,-5.4062 -15.5631,3.1739 -36.0735,2.6926 -51.375,-1.1875 -13.5281,-3.4305 -23.4588,-6.192 -31.3125,-8.6875 -4.5659,-1.4509 -10.1045,-2.625 -12.3125,-2.625 -2.208,0 -13.5364,-2.2779 -25.1875,-5.0625 -11.6511,-2.7847 -27.0375,-6.1967 -34.1875,-7.5937 -7.15,-1.397 -13.7302,-2.9193 -14.625,-3.375 -0.8948,-0.4557 -3.3698,-1.1523 -5.5,-1.5313 -20.6135,-3.6669 -48.3335,-13.5434 -62.375,-22.25 -1.925,-1.1936 -4.0681,-2.1854 -4.7812,-2.1875 -1.4749,0 -16.1855,-8.2288 -20.7188,-11.5938 -7.1193,-5.2844 -10.5017,-5.8994 -32.5,-5.875 -16.3066,0.018 -22.2387,0.4128 -29,1.9063 -10.1654,2.2455 -22.1951,2.2662 -36.999998,0.062 -20.6167,-3.0685 -20.2401,-2.958 -31.5937,-10.4688 -7.2848,-4.819 -12.9092,-7.7076 -17.7813,-9.1562 -12.652,-3.7615 -17.9284,-11.6618 -18,-26.875 -0.035,-7.3655 0.3095,-9.2086 2.6875,-13.7812 2.7082,-5.2076 2.7406,-5.3389 1.1563,-10 -4.0414,-11.8892 -2.5903,-20.1151 5.5625,-31.2188 3.6148,-4.9232 5.0473,-7.9503 5.875,-12.4375 1.2063,-6.5406 6.4754,-15.218 11.625,-19.1563 1.6619,-1.2709 5.2619,-2.7748 8,-3.375 7.4948,-1.6428 12.388,-4.2883 18.4687,-9.9062 3.025,-2.7948 6.2421,-5.6409 7.1563,-6.3438 1.5177,-1.1666 1.5509,-2.0632 0.2812,-10.2812 -1.6826,-10.8904 -1.8922,-52.4682 -0.3125,-63.49999 1.1045,-7.7131 1.4781,-11.1363 2.2813,-21.5 0.2557,-3.3 1.2084,-10.275 2.125,-15.5 3.365998,-19.1887 4.085298,-26.6989 5.968698,-62 0.2788,-5.225 0.6169,-10.175 0.75,-11 0.4246,-2.6318 -3.0988,-32.3413 -4.687498,-39.5 -0.2441,-1.1 -1.1748,-4.7 -2.0625,-8 -0.8877,-3.3 -2.4997,-10.725 -3.5937,-16.5 -1.0941,-5.775 -2.8268,-13.2 -3.8438,-16.5 -1.017,-3.3 -3.9492,-12.975 -6.5,-21.5 -6.4094,-21.4204 -9.6882,-30.7167 -18.4375,-52 -2.8262,-6.87504 -6.1096,-14.97504 -7.2812,-18.00004 -1.1717,-3.025 -2.9252,-6.85 -3.9063,-8.5 -0.9811,-1.65 -3.8221,-11.1 -6.3125,-21 -2.4904,-9.9 -5.4606,-21.375 -6.5937,-25.5 -7.7471,-28.20285 -8.3399,-32.09725 -8.25,-54.5 0.1251,-31.202109 1.9885,-44.667869 9.7187,-69.999999 3.9118,-12.81908 4.8915,-18.5031 4.0625,-24.03125 -0.8164,-5.44411 -2.3875,-7.20686 -14.375,-16.3750004 -12.6844,-9.70118 -14.5349,-10.85008 -30.2811996,-18.7187496 -17.8180004,-8.9039 -40.7396004,-23.77417 -49.4375004,-32.09375 -3.316,-3.17176 -10.9436,-11.18125 -16.9375,-17.78125 -5.994,-6.6 -14.7538,-15.75342 -19.4688,-20.34375 -4.715,-4.59032 -11.592,-12.46532 -15.2812,-17.500001 -10.034202,-13.69343 -23.687502,-34.20489 -25.250002,-37.90625 -0.7578,-1.79487 -3.1552,-6.50283 -5.3438,-10.46875 -4.3653,-7.91041 -5.767,-11.42654 -9.75,-24.625 -2.6665,-8.83599 -2.8302,-15.83875 -0.5,-20.5 0.4572,-0.91451 1.375,-3.45625 2.0625,-5.65625 5.7323,-18.34199 21.8204,-38.91381 33.25,-42.53125 2.3458,-0.74244 8.750002,-3.12583 14.250002,-5.3125 9.5345,-3.79067 10.5121,-3.97661 21,-3.96875 11.7009,0.009 9.9544,-0.42649 33,8.15625 4.4,1.63867 10.925,4.6119 14.5,6.59375 3.575,1.98184 10.325,5.40677 15.0000004,7.625 9.0198,4.27978 20.8595996,11.96406 27.5624996,17.875 9.5736,8.44252 11.0099,9.66408 13.5313,11.5625 1.4609,1.1 5.2995,4.01045 8.5312,6.46875 3.2317,2.4583 9.25,6.87288 13.375,9.8125 4.125,2.93962 11.1148,8.80416 15.5313,13.03125 9.3868,8.98433 15.9044,14.56389 23.2812,19.875 2.924,2.10524 8.719198,6.5125 12.874998,9.8125 4.1558,3.3 10.9923,8.66383 15.1875,11.90625 4.1952,3.24241 10.2174,8.20666 13.375,11.0625 3.1576,2.85585 7.2805,6.0355 9.1875,7.0625 3.3474,1.80267 3.6231,1.82324 7.25,0.0937 5.4875,-2.61679 11.3093,-7.54994 11.2188,-9.46875 -0.083,-1.76419 -1.5121,-4.10978 -11.9688,-19.8125 -3.6009,-5.40742 -8.8952,-13.89375 -11.7812,-18.84375 -2.8861,-4.95 -8.7609,-14.4 -13.0625,-21 -4.3016,-6.6 -9.1639,-14.52617 -10.8125,-17.625 -5.877,-11.04618 -12.6695,-21.88586 -16.999998,-27.09375 -2.4184,-2.90834 -5.4839,-7.39517 -6.8125,-9.96875 -1.3287,-2.57358 -2.8905,-4.94314 -3.4375,-5.28125 -0.5471,-0.3381 -2.6356,-3.62418 -4.6563,-7.3125 -2.0206,-3.68831 -5.3519,-9.42629 -7.4062,-12.75 -6.0616,-9.80666 -11.8649,-21.96759 -16.125,-33.84375 -4.7967,-13.37165 -5.3629,-22.89281 -2.0313,-33.375 2.9436,-9.26144 14.576,-23.82808 21.4063,-26.78125 2.3568,-1.01902 5.1812,-2.59192 6.2812,-3.5 8.5101,-7.02532 17.850098,-9.95323 31.781298,-9.96875 z"
         style="color:#000000;fill:#ffffff;fill-opacity:0;fill-rule:nonzero;stroke:#00979c;stroke-width:82;stroke-linecap:round;stroke-linejoin:miter;stroke-miterlimit:4;stroke-opacity:1;stroke-dasharray:none;marker:none;visibility:visible;display:inline;overflow:visible;enable-background:accumulate"
         inkscape:export-filename="/home/moteado/Desarrollo/arduino/logo/logo.png"
         inkscape:export-xdpi="9.0855474"
         inkscape:export-ydpi="9.0855474" />
      <svg:g
         font-size="167"
         id="g8"
         transform="matrix(-0.23657976,-1.6795316,1.6795316,-0.23657976,211.03303,1047.4416)"
         style="font-size:167px;text-anchor:middle;fill:#000000;fill-opacity:0;stroke:#00979c;stroke-width:27.69437408;stroke-miterlimit:4;stroke-opacity:1;stroke-dasharray:none;font-family:sans-serif"
         inkscape:export-filename="/home/moteado/Desarrollo/arduino/logo/logo.png"
         inkscape:export-xdpi="9.0855474"
         inkscape:export-ydpi="9.0855474">
        <svg:g
           style="fill:#000000;fill-opacity:0;stroke:#00979c;stroke-width:27.69437408;stroke-miterlimit:4;stroke-opacity:1;stroke-dasharray:none"
           id="text10">
          <svg:path
             style="fill:#000000;fill-opacity:0;stroke:#00979c;stroke-width:27.69437408;stroke-miterlimit:4;stroke-opacity:1;stroke-dasharray:none"
             inkscape:connector-curvature="0"
             d="m 528.06885,194.67432 0,-32.78028 -32.53565,0 0,-13.69922 32.53565,0 0,-32.53564 13.8623,0 0,32.53564 32.53565,0 0,13.69922 -32.53565,0 0,32.78028 z"
             id="path3075" />
        </svg:g>
        <svg:text
           style="fill:#000000;fill-opacity:0;stroke:#00979c;stroke-width:27.69437408;stroke-miterlimit:4;stroke-opacity:1;stroke-dasharray:none"
           x="181"
           y="218"
           dy="0"
           id="text12">
          <ndash />
        </svg:text>
      </svg:g>
      <svg:g
         font-size="167"
         id="g8-1"
         transform="translate(-365.79453,-27.087261)"
         style="font-size:167px;text-anchor:middle;fill:#000000;fill-opacity:0;stroke:#00979c;stroke-width:40;stroke-miterlimit:4;stroke-opacity:1;stroke-dasharray:none;font-family:sans-serif"
         inkscape:export-filename="/home/moteado/Desarrollo/arduino/logo/logo.png"
         inkscape:export-xdpi="9.0855474"
         inkscape:export-ydpi="9.0855474">
        <svg:g
           transform="matrix(-0.26227763,-1.8619603,0.76061554,-0.10714108,651.21794,1152.1332)"
           style="font-size:197.21893311px;fill:#000000;fill-opacity:0;stroke:#00979c;stroke-width:33.28325272;stroke-miterlimit:4;stroke-opacity:1;stroke-dasharray:none"
           id="text10-7">
          <svg:path
             inkscape:connector-curvature="0"
             d="m 263.78991,278.38262 0,-24.5991 75.15702,0 0,24.5991 z"
             style="font-size:197.21893311px;fill:#000000;fill-opacity:0;stroke:#00979c;stroke-width:46.97257996;stroke-miterlimit:4;stroke-opacity:1;stroke-dasharray:none"
             id="path3078" />
        </svg:g>
        <svg:g
           style="fill:#000000;fill-opacity:0;stroke:#00979c;stroke-width:40;stroke-miterlimit:4;stroke-opacity:1;stroke-dasharray:none"
           id="text12-4" />
      </svg:g>
    </svg:g>
  </svg:g>
</svg:svg>
